@startuml

interface "Unserializable" {
+ void function (Unserializator) unserialize;
}

interface "Transformer" {
}
interface "Serializator" {
+ Serializator function (ubyte) put;
+ Serializator function (byte) put;
+ Serializator function (ushort) put;
+ Serializator function (short) put;
+ Serializator function (uint) put;
+ Serializator function (int) put;
+ Serializator function (ulong) put;
+ Serializator function (long) put;
+ Serializator function (float) put;
+ Serializator function (double) put;
+ Serializator function (char) put;
+ Serializator function (wchar) put;
+ Serializator function (dchar) put;
+ Serializator function (char[]) put;
+ Serializator function (wchar[]) put;
+ Serializator function (dchar[]) put;
+ Serializator function (Serializable) put;
}
interface "Serializable" {
+ void function (Serializator) serialize;
}

class "ObjectMarshallerInputRange" {
+ ObjectMarshallerInputRange function (StreamUnserializator) unserializator;
+ StreamUnserializator function () unserializator;
+ ObjectMarshallerInputRange function (ObjectMarshaller) marshaller;
+ ObjectMarshaller function () marshaller;
+ Object function () front;
+ void function () popFront;
+ Object function () moveFront;
}
interface "Transformable" {
}
interface "Unserializator" {
+ ubyte function () getUbyte;
+ byte function () getByte;
+ ushort function () getUshort;
+ short function () getShort;
+ uint function () getUint;
+ int function () getInt;
+ ulong function () getUlong;
+ long function () getLong;
+ float function () getFloat;
+ double function () getDouble;
+ char function () getChar;
+ wchar function () getWchar;
+ dchar function () getDchar;
+ char[] function () getString;
+ wchar[] function () getWstring;
+ dchar[] function () getDstring;
+ Unserializator function (Unserializable) getUnserializable;
+ Unserializator function (ubyte) get;
+ Unserializator function (byte) get;
+ Unserializator function (ushort) get;
+ Unserializator function (short) get;
+ Unserializator function (uint) get;
+ Unserializator function (int) get;
+ Unserializator function (ulong) get;
+ Unserializator function (long) get;
+ Unserializator function (float) get;
+ Unserializator function (double) get;
+ Unserializator function (char) get;
+ Unserializator function (wchar) get;
+ Unserializator function (dchar) get;
+ Unserializator function (char[]) get;
+ Unserializator function (wchar[]) get;
+ Unserializator function (dchar[]) get;
+ Unserializator function (Unserializable) get;
}
class "ObjectMarshallerOutputRange" {
+ ObjectMarshallerOutputRange function (StreamSerializator) serializator;
+ StreamSerializator function () serializator;
+ ObjectMarshallerOutputRange function (ObjectMarshaller) marshaller;
+ ObjectMarshaller function () marshaller;
+ void function (Object) put;
}
interface "ObjectMarshaller" {
+ void function (Object,Serializator) marshall;
+ Object function (Unserializator) unmarshall;
}
"Transformer" --|> "Serializator"
"Transformer" --|> "Unserializator"
"Serializator" --|> "FullAware"
"ObjectMarshallerInputRange" ..|> "InputStream"
"ObjectMarshallerInputRange" ..|> "CloseAware"
"Transformable" --|> "Serializable"
"Transformable" --|> "Unserializable"
"Unserializator" --|> "EmptyAware"
"ObjectMarshallerOutputRange" ..|> "OutputStream"
"ObjectMarshallerOutputRange" ..|> "CloseAware"
"ObjectMarshallerInputRange" o-- "StreamUnserializator"
"ObjectMarshallerInputRange" o-- "ObjectMarshaller"
"ObjectMarshallerOutputRange" o-- "StreamSerializator"
"ObjectMarshallerOutputRange" o-- "ObjectMarshaller"

interface OutputStream {
}

interface "FullAware" {
+ bool function () full;
}

interface "CloseAware" {
+ bool function () closed;
}

interface "EmptyAware" {
+ bool function () empty;
}

@enduml

